Chapter 4 Challenge Task | One Health VBD Hub Training 2026
…
library("tidyverse")

challenge_data <- read_csv("data/challenge_data.csv")
#> Rows: 27285 Columns: 15
#> ── Column specification ────────────────────────────────────
#> Delimiter: ","
#> chr  (8): genus, species, sample_unit, sample_sex, sampl...
#> dbl  (3): sample_value, sample_lat_dd, sample_long_dd
#> lgl  (2): value_transform, study_design
#> date (2): sample_start_date, sample_end_date
#> 
#> ℹ Use `spec()` to retrieve the full column specification for this data.
#> ℹ Specify the column types or set `show_col_types = FALSE` to quiet this message.
challenge_data
#> # A tibble: 27,285 × 15
#>    genus species           sample_start_date sample_end_date
#>    <chr> <chr>             <date>            <date>         
#>  1 Aedes vexans sensu lato 2015-09-29        2015-09-29     
#>  2 Aedes vexans sensu lato 2015-09-29        2015-09-29     
#>  3 Aedes vexans sensu lato 2015-09-29        2015-09-29     
#>  4 Aedes vexans sensu lato 2015-09-29        2015-09-29     
#>  5 Aedes vexans sensu lato 2015-09-29        2015-09-29     
#>  6 Aedes vexans sensu lato 2015-09-29        2015-09-29     
#>  7 Aedes vexans sensu lato 2015-09-29        2015-09-29     
#>  8 Aedes vexans sensu lato 2015-09-29        2015-09-29     
#>  9 Aedes vexans sensu lato 2015-09-29        2015-09-29     
#> 10 Aedes vexans sensu lato 2015-09-29        2015-09-29     
#> # ℹ 27,275 more rows
#> # ℹ 11 more variables: sample_value <dbl>,
#> #   sample_unit <chr>, value_transform <lgl>,
#> #   sample_sex <chr>, sample_stage <chr>,
#> #   sample_lat_dd <dbl>, sample_long_dd <dbl>,
#> #   species_id_method <chr>, study_design <lgl>,
#> #   sampling_method <chr>, location_description <chr>
…
